[1122/141348.732:ERROR:crash_report_database_win.cc(469)] failed to stat report
[1122/141348.753:ERROR:crash_report_database_win.cc(469)] failed to stat report
[1122/141348.753:ERROR:crash_report_database_win.cc(469)] failed to stat report
[1122/141348.753:ERROR:crash_report_database_win.cc(469)] failed to stat report
[1122/141348.753:ERROR:crash_report_database_win.cc(469)] failed to stat report
[1126/105804.660:ERROR:crash_report_database_win.cc(469)] failed to stat report
[1126/105804.660:ERROR:crash_report_database_win.cc(469)] failed to stat report
[1126/105804.660:ERROR:crash_report_database_win.cc(469)] failed to stat report
[1126/105804.660:ERROR:crash_report_database_win.cc(469)] failed to stat report
[1126/105804.660:ERROR:crash_report_database_win.cc(469)] failed to stat report
[1126/105806.301:ERROR:crash_report_database_win.cc(469)] failed to stat report
[1126/105806.301:ERROR:crash_report_database_win.cc(469)] failed to stat report
[1126/105806.301:ERROR:crash_report_database_win.cc(469)] failed to stat report
[1126/105806.301:ERROR:crash_report_database_win.cc(469)] failed to stat report
[1126/105806.301:ERROR:crash_report_database_win.cc(469)] failed to stat report
[1126/105816.269:ERROR:crash_report_database_win.cc(469)] failed to stat report
[1126/105816.269:ERROR:crash_report_database_win.cc(469)] failed to stat report
[1126/105816.269:ERROR:crash_report_database_win.cc(469)] failed to stat report
[1126/105816.269:ERROR:crash_report_database_win.cc(469)] failed to stat report
[1126/105816.269:ERROR:crash_report_database_win.cc(469)] failed to stat report
